base,original,compressed,ratio,mssim,shame2
kodim01,1398100,327394,4.27039,0.999592,0.283296
kodim02,1398100,277680,5.03493,0.998926,0.437652
kodim03,1398100,233421,5.98961,0.998886,0.45763
kodim04,1398100,261250,5.35158,0.999106,0.342634
kodim05,1398100,370733,3.77118,0.999764,0.333527
kodim06,1398100,300739,4.64888,0.999419,0.206978
kodim07,1398100,232261,6.01952,0.999152,0.350101
kodim08,1398100,354704,3.9416,0.999597,0.238066
kodim09,1398100,211168,6.62079,0.998546,0.259695
kodim10,1398100,229629,6.08852,0.998848,0.276833
kodim11,1398100,296341,4.71788,0.9993,0.288294
kodim12,1398100,242356,5.76879,0.998697,0.248930
kodim13,1398100,367788,3.80137,0.999735,0.223008
kodim14,1398100,319959,4.36962,0.999422,0.402592
kodim15,1398100,273247,5.11662,0.99907,0.272824
kodim16,1398100,234030,5.97402,0.998983,0.375714
kodim17,1398100,244984,5.7069,0.998926,0.299192
kodim18,1398100,333302,4.19469,0.999446,0.344703
kodim19,1398100,244470,5.7189,0.998887,0.250841
kodim20,1398100,234309,5.96691,0.999292,0.160135
kodim21,1398100,285023,4.90522,0.999159,0.277275
kodim22,1398100,316618,4.41573,0.999285,0.265014
kodim23,1398100,225934,6.18809,0.998806,0.310676
kodim24,1398100,321667,4.34642,0.999534,0.286169
