30,1000,1.3981e+006,1.8002e+005,7.7663,0.9878,1.1293
30,1010,1.3981e+006,1.7006e+005,8.221,0.98783,1.2965
30,1020,1.3981e+006,1.6618e+005,8.4131,0.98784,1.7413
30,1100,1.3981e+006,95975,14.567,0.98767,1.2195
30,1110,1.3981e+006,86707,16.124,0.9877,1.3902
30,1120,1.3981e+006,82824,16.88,0.98771,1.8358
30,1200,1.3981e+006,71672,19.507,0.98734,1.6973
30,1210,1.3981e+006,62404,22.404,0.98738,1.8753
30,1220,1.3981e+006,58513,23.894,0.98737,2.3042
130,1000,1.3981e+006,1.3142e+005,10.638,0.98782,1.1437
130,1010,1.3981e+006,1.2147e+005,11.51,0.98785,1.3173
130,1020,1.3981e+006,1.176e+005,11.889,0.98786,1.7605
130,1100,1.3981e+006,83748,16.694,0.98764,1.2733
130,1110,1.3981e+006,74480,18.772,0.98768,1.4437
130,1120,1.3981e+006,70606,19.801,0.98768,1.9072
130,1200,1.3981e+006,68632,20.371,0.98734,1.7771
130,1210,1.3981e+006,59364,23.551,0.98738,1.9648
130,1220,1.3981e+006,55473,25.203,0.98736,2.4005
230,1000,1.3981e+006,97818,14.293,0.9877,1.3265
230,1010,1.3981e+006,87846,15.915,0.98773,1.5003
230,1020,1.3981e+006,83967,16.651,0.98775,1.9609
230,1100,1.3981e+006,74579,18.747,0.98757,1.5107
230,1110,1.3981e+006,65311,21.407,0.98761,1.682
230,1120,1.3981e+006,61432,22.759,0.98762,2.1489
230,1200,1.3981e+006,65991,21.186,0.98726,2.0794
230,1210,1.3981e+006,56723,24.648,0.98729,2.2525
230,1220,1.3981e+006,52832,26.463,0.98731,2.7052
300,1000,1.3981e+006,1.7481e+005,7.9981,0.98715,1.2787
300,1010,1.3981e+006,95802,14.594,0.9873,1.348
300,1020,1.3981e+006,73198,19.1,0.98747,1.7554
300,1100,1.3981e+006,1.6358e+005,8.5467,0.98702,1.4858
300,1110,1.3981e+006,85257,16.399,0.98719,1.5536
300,1120,1.3981e+006,62653,22.315,0.98736,1.9712
300,1200,1.3981e+006,1.5908e+005,8.7889,0.98673,2.0466
300,1210,1.3981e+006,80748,17.314,0.98687,2.122
300,1220,1.3981e+006,58146,24.045,0.98702,2.5352
310,1000,1.3981e+006,1.2765e+005,10.953,0.98729,1.3001
310,1010,1.3981e+006,83945,16.655,0.98738,1.4057
310,1020,1.3981e+006,70222,19.91,0.98752,1.8487
310,1100,1.3981e+006,1.1645e+005,12.006,0.98718,1.5076
310,1110,1.3981e+006,73400,19.048,0.98726,1.613
310,1120,1.3981e+006,59677,23.428,0.9874,2.0659
310,1200,1.3981e+006,1.1194e+005,12.49,0.98688,2.0773
310,1210,1.3981e+006,68891,20.294,0.98695,2.19
310,1220,1.3981e+006,55170,25.342,0.98707,2.6427
320,1000,1.3981e+006,96091,14.55,0.98735,1.481
320,1010,1.3981e+006,75246,18.58,0.98743,1.6349
320,1020,1.3981e+006,67702,20.651,0.98749,2.1249
320,1100,1.3981e+006,84863,16.475,0.98724,1.6963
320,1110,1.3981e+006,64701,21.609,0.98732,1.8546
320,1120,1.3981e+006,57157,24.461,0.98738,2.352
320,1200,1.3981e+006,80339,17.403,0.98693,2.2892
320,1210,1.3981e+006,60177,23.233,0.98701,2.454
320,1220,1.3981e+006,52650,26.555,0.98706,2.9041
330,1000,1.3981e+006,79688,17.545,0.98741,2.2665
330,1010,1.3981e+006,69713,20.055,0.98745,2.4534
330,1020,1.3981e+006,65827,21.239,0.98751,2.9527
330,1100,1.3981e+006,68436,20.429,0.98731,2.492
330,1110,1.3981e+006,59168,23.629,0.98735,2.6751
330,1120,1.3981e+006,55282,25.29,0.98739,3.1809
330,1200,1.3981e+006,63934,21.868,0.987,3.1119
330,1210,1.3981e+006,54666,25.575,0.98704,3.2971
330,1220,1.3981e+006,50775,27.535,0.98706,3.7845
1030,1000,1.3981e+006,1.6783e+005,8.3305,0.98435,1.172
1030,1010,1.3981e+006,1.5787e+005,8.8559,0.98439,1.3412
1030,1020,1.3981e+006,1.54e+005,9.0783,0.9844,1.792
1030,1100,1.3981e+006,83783,16.687,0.9842,1.2603
1030,1110,1.3981e+006,74515,18.763,0.98424,1.4308
1030,1120,1.3981e+006,70647,19.79,0.98425,1.9137
1030,1200,1.3981e+006,59480,23.505,0.98387,1.7406
1030,1210,1.3981e+006,50212,27.844,0.98392,1.9189
1030,1220,1.3981e+006,46323,30.182,0.98392,2.3495
1130,1000,1.3981e+006,1.1925e+005,11.724,0.98437,1.1855
1130,1010,1.3981e+006,1.093e+005,12.792,0.9844,1.3597
1130,1020,1.3981e+006,1.0543e+005,13.262,0.98441,1.8073
1130,1100,1.3981e+006,71574,19.534,0.98417,1.3135
1130,1110,1.3981e+006,62306,22.439,0.98422,1.4836
1130,1120,1.3981e+006,58434,23.926,0.98422,1.969
1130,1200,1.3981e+006,56442,24.771,0.98387,1.82
1130,1210,1.3981e+006,47174,29.637,0.98392,2.0088
1130,1220,1.3981e+006,43285,32.3,0.98391,2.4461
1230,1000,1.3981e+006,85622,16.329,0.98422,1.3646
1230,1010,1.3981e+006,75650,18.481,0.98426,1.5394
1230,1020,1.3981e+006,71768,19.481,0.9843,2.003
1230,1100,1.3981e+006,62383,22.412,0.9841,1.55
1230,1110,1.3981e+006,53115,26.322,0.98414,1.7214
1230,1120,1.3981e+006,49233,28.398,0.98417,2.1904
1230,1200,1.3981e+006,53790,25.992,0.98381,2.1201
1230,1210,1.3981e+006,44522,31.403,0.98385,2.2935
1230,1220,1.3981e+006,40633,34.408,0.98387,2.7466
1300,1000,1.3981e+006,1.6261e+005,8.5979,0.98367,1.3216
1300,1010,1.3981e+006,83607,16.722,0.98382,1.3899
1300,1020,1.3981e+006,61029,22.909,0.98402,1.7976
1300,1100,1.3981e+006,1.5139e+005,9.2352,0.98354,1.5296
1300,1110,1.3981e+006,73062,19.136,0.98371,1.5974
1300,1120,1.3981e+006,50484,27.694,0.9839,2.0142
1300,1200,1.3981e+006,1.4689e+005,9.5182,0.98325,2.0951
1300,1210,1.3981e+006,68560,20.392,0.98338,2.1696
1300,1220,1.3981e+006,45956,30.423,0.98356,2.5791
1310,1000,1.3981e+006,1.1545e+005,12.11,0.98382,1.3429
1310,1010,1.3981e+006,71751,19.485,0.98391,1.4456
1310,1020,1.3981e+006,58053,24.083,0.98405,1.8924
1310,1100,1.3981e+006,1.0425e+005,13.411,0.9837,1.5527
1310,1110,1.3981e+006,61206,22.843,0.98379,1.6549
1310,1120,1.3981e+006,47508,29.429,0.98393,2.1102
1310,1200,1.3981e+006,99753,14.016,0.9834,2.1264
1310,1210,1.3981e+006,56705,24.656,0.98348,2.2348
1310,1220,1.3981e+006,42980,32.529,0.9836,2.6884
1320,1000,1.3981e+006,83906,16.663,0.98389,1.522
1320,1010,1.3981e+006,63061,22.171,0.98398,1.6751
1320,1020,1.3981e+006,55538,25.174,0.98406,2.1679
1320,1100,1.3981e+006,72678,19.237,0.98377,1.7383
1320,1110,1.3981e+006,52516,26.622,0.98386,1.8966
1320,1120,1.3981e+006,44993,31.074,0.98393,2.3958
1320,1200,1.3981e+006,68167,20.51,0.98347,2.3352
1320,1210,1.3981e+006,48005,29.124,0.98355,2.4985
1320,1220,1.3981e+006,40465,34.551,0.98361,2.9482
1330,1000,1.3981e+006,67508,20.71,0.98396,2.3065
1330,1010,1.3981e+006,57533,24.301,0.98401,2.4928
1330,1020,1.3981e+006,53664,26.053,0.98406,2.9955
1330,1100,1.3981e+006,56256,24.852,0.98385,2.534
1330,1110,1.3981e+006,46988,29.754,0.98389,2.7178
1330,1120,1.3981e+006,43119,32.424,0.98395,3.2248
1330,1200,1.3981e+006,51748,27.017,0.98355,3.1589
1330,1210,1.3981e+006,42480,32.912,0.98359,3.344
1330,1220,1.3981e+006,38591,36.229,0.98362,3.8314
2030,1000,1.3981e+006,1.5842e+005,8.8253,0.97546,1.345
2030,1010,1.3981e+006,1.4846e+005,9.4172,0.97551,1.5226
2030,1020,1.3981e+006,1.4459e+005,9.6695,0.97553,1.9815
2030,1100,1.3981e+006,74373,18.799,0.97534,1.4308
2030,1110,1.3981e+006,65105,21.474,0.97539,1.6191
2030,1120,1.3981e+006,61232,22.833,0.97542,2.0806
2030,1200,1.3981e+006,50062,27.927,0.97499,1.9108
2030,1210,1.3981e+006,40794,34.272,0.97504,2.094
2030,1220,1.3981e+006,36921,37.867,0.97506,2.5349
2130,1000,1.3981e+006,1.0982e+005,12.73,0.9755,1.3575
2130,1010,1.3981e+006,99874,13.999,0.97555,1.5346
2130,1020,1.3981e+006,96010,14.562,0.97557,2.0086
2130,1100,1.3981e+006,62151,22.495,0.97531,1.4807
2130,1110,1.3981e+006,52883,26.438,0.97537,1.6697
2130,1120,1.3981e+006,49019,28.522,0.97539,2.1339
2130,1200,1.3981e+006,47022,29.733,0.97498,2.0047
2130,1210,1.3981e+006,37754,37.032,0.97504,2.1842
2130,1220,1.3981e+006,33881,41.265,0.97505,2.6297
2230,1000,1.3981e+006,76203,18.347,0.97534,1.5286
2230,1010,1.3981e+006,66231,21.11,0.97539,1.7053
2230,1020,1.3981e+006,62372,22.416,0.97544,2.1783
2230,1100,1.3981e+006,52964,26.397,0.97521,1.7133
2230,1110,1.3981e+006,43696,31.996,0.97526,1.888
2230,1120,1.3981e+006,39837,35.096,0.9753,2.3643
2230,1200,1.3981e+006,44386,31.499,0.97492,2.2877
2230,1210,1.3981e+006,35118,39.812,0.97497,2.4654
2230,1220,1.3981e+006,31245,44.746,0.97502,2.9243
2300,1000,1.3981e+006,1.5321e+005,9.1255,0.97468,1.4951
2300,1010,1.3981e+006,74205,18.841,0.97486,1.5615
2300,1020,1.3981e+006,51606,27.092,0.97513,1.983
2300,1100,1.3981e+006,1.4199e+005,9.8467,0.97454,1.7064
2300,1110,1.3981e+006,63660,21.962,0.97474,1.7734
2300,1120,1.3981e+006,41061,34.049,0.975,2.1929
2300,1200,1.3981e+006,1.3748e+005,10.17,0.97425,2.2839
2300,1210,1.3981e+006,59150,23.637,0.97441,2.3613
2300,1220,1.3981e+006,36557,38.244,0.97466,2.7968
2310,1000,1.3981e+006,1.0605e+005,13.183,0.97482,1.513
2310,1010,1.3981e+006,62353,22.422,0.97493,1.6177
2310,1020,1.3981e+006,48627,28.752,0.97516,2.0715
2310,1100,1.3981e+006,94856,14.739,0.9747,1.7269
2310,1110,1.3981e+006,51808,26.986,0.9748,1.8312
2310,1120,1.3981e+006,38082,36.713,0.97503,2.2918
2310,1200,1.3981e+006,90335,15.477,0.97439,2.3131
2310,1210,1.3981e+006,47287,29.566,0.97448,2.4247
2310,1220,1.3981e+006,33578,41.637,0.9747,2.8812
2320,1000,1.3981e+006,74484,18.77,0.97498,1.6909
2320,1010,1.3981e+006,53639,26.065,0.97509,1.8436
2320,1020,1.3981e+006,46107,30.323,0.9752,2.3497
2320,1100,1.3981e+006,63256,22.102,0.97484,1.9086
2320,1110,1.3981e+006,43094,32.443,0.97495,2.0682
2320,1120,1.3981e+006,35562,39.314,0.97506,2.5787
2320,1200,1.3981e+006,58743,23.8,0.97454,2.5171
2320,1210,1.3981e+006,38581,36.238,0.97465,2.6818
2320,1220,1.3981e+006,31058,45.016,0.97474,3.1253
2330,1000,1.3981e+006,58090,24.068,0.97506,2.4764
2330,1010,1.3981e+006,48115,29.058,0.97512,2.6635
2330,1020,1.3981e+006,44233,31.608,0.97521,3.178
2330,1100,1.3981e+006,46838,29.85,0.97494,2.7057
2330,1110,1.3981e+006,37570,37.213,0.97499,2.8915
2330,1120,1.3981e+006,33688,41.501,0.97508,3.4055
2330,1200,1.3981e+006,42325,33.032,0.97464,3.3394
2330,1210,1.3981e+006,33057,42.294,0.9747,3.5264
2330,1220,1.3981e+006,29184,47.906,0.97475,4.0207
3030,1000,1.3981e+006,1.5167e+005,9.2179,0.9553,1.9163
3030,1010,1.3981e+006,1.4172e+005,9.8656,0.95536,2.1014
3030,1020,1.3981e+006,1.3785e+005,10.142,0.95543,2.6506
3030,1100,1.3981e+006,67626,20.674,0.95517,2.0006
3030,1110,1.3981e+006,58358,23.957,0.95523,2.2272
3030,1120,1.3981e+006,54491,25.657,0.9553,2.736
3030,1200,1.3981e+006,43316,32.277,0.95484,2.4956
3030,1210,1.3981e+006,34048,41.063,0.95491,2.7191
3030,1220,1.3981e+006,30174,46.335,0.95498,3.2117
3130,1000,1.3981e+006,1.0308e+005,13.563,0.95536,1.929
3130,1010,1.3981e+006,93131,15.012,0.95542,2.1145
3130,1020,1.3981e+006,89253,15.665,0.95548,2.6634
3130,1100,1.3981e+006,55408,25.233,0.95516,2.0521
3130,1110,1.3981e+006,46140,30.301,0.95523,2.2779
3130,1120,1.3981e+006,42262,33.082,0.9553,2.7868
3130,1200,1.3981e+006,40277,34.712,0.95482,2.5819
3130,1210,1.3981e+006,31009,45.087,0.95489,2.7719
3130,1220,1.3981e+006,27135,51.524,0.95493,3.2451
3230,1000,1.3981e+006,69469,20.125,0.95508,2.0959
3230,1010,1.3981e+006,59497,23.499,0.95514,2.2795
3230,1020,1.3981e+006,55620,25.137,0.95523,2.7853
3230,1100,1.3981e+006,46230,30.242,0.95496,2.2817
3230,1110,1.3981e+006,36962,37.825,0.95501,2.4689
3230,1120,1.3981e+006,33085,42.258,0.9551,2.9722
3230,1200,1.3981e+006,37632,37.152,0.95471,2.8778
3230,1210,1.3981e+006,28364,49.291,0.95477,3.065
3230,1220,1.3981e+006,24490,57.089,0.95486,3.5493
3300,1000,1.3981e+006,1.4645e+005,9.5465,0.95441,2.0672
3300,1010,1.3981e+006,67449,20.728,0.95464,2.1293
3300,1020,1.3981e+006,44859,31.166,0.95496,2.5781
3300,1100,1.3981e+006,1.3523e+005,10.339,0.95429,2.2849
3300,1110,1.3981e+006,56904,24.57,0.95454,2.3558
3300,1120,1.3981e+006,34314,40.744,0.95485,2.8215
3300,1200,1.3981e+006,1.3072e+005,10.695,0.95404,2.8879
3300,1210,1.3981e+006,52394,26.684,0.95423,2.9669
3300,1220,1.3981e+006,29809,46.902,0.95454,3.4324
3310,1000,1.3981e+006,99295,14.08,0.9546,2.0887
3310,1010,1.3981e+006,55594,25.148,0.95476,2.1757
3310,1020,1.3981e+006,41885,33.38,0.95504,2.664
3310,1100,1.3981e+006,88097,15.87,0.95449,2.3131
3310,1110,1.3981e+006,45049,31.035,0.95466,2.4013
3310,1120,1.3981e+006,31340,44.611,0.95493,2.8952
3310,1200,1.3981e+006,83595,16.725,0.95422,2.9215
3310,1210,1.3981e+006,40547,34.481,0.95437,3.0225
3310,1220,1.3981e+006,26835,52.1,0.95463,3.5133
3320,1000,1.3981e+006,67751,20.636,0.95476,2.2694
3320,1010,1.3981e+006,46906,29.806,0.9549,2.4226
3320,1020,1.3981e+006,39367,35.514,0.95508,2.8786
3320,1100,1.3981e+006,56523,24.735,0.95465,2.4964
3320,1110,1.3981e+006,36361,38.45,0.95478,2.6571
3320,1120,1.3981e+006,28822,48.508,0.95495,3.1122
3320,1200,1.3981e+006,52003,26.885,0.95438,3.1275
3320,1210,1.3981e+006,31841,43.909,0.9545,3.2217
3320,1220,1.3981e+006,24317,57.495,0.95465,3.7305
3330,1000,1.3981e+006,51343,27.231,0.95492,3.0456
3330,1010,1.3981e+006,41368,33.797,0.95498,3.2353
3330,1020,1.3981e+006,37487,37.296,0.95512,3.774
3330,1100,1.3981e+006,40091,34.873,0.95481,3.2798
3330,1110,1.3981e+006,30823,45.359,0.95488,3.4726
3330,1120,1.3981e+006,26942,51.893,0.95501,4.0079
3330,1200,1.3981e+006,35579,39.296,0.95456,3.9347
3330,1210,1.3981e+006,26311,53.138,0.95462,4.122
3330,1220,1.3981e+006,22437,62.312,0.95472,4.6403
